4ch-sam.vcd
$date
   Date text. For example: November 11, 2009.
$end
$version
   VCD generator tool version info text.
$end
$comment
   Any comment text.
$end
$timescale 1ps $end
$scope module logic $end
$var wire 1 $ ch0 $end
$var wire 1 % ch1 $end
$var wire 1 $ ch2 $end
$var wire 1 % ch3 $end
$upscope $end
$enddefinitions $end
$dumpvars
x$
0%
x&
x
$end
#0
1
0
0
0
#1
1
0
0
0
#2
0
0
0
0
#3
1
0
0
0
#4
0
0
0
0
#5
1
0
0
0
#6
0
0
0
0
#7
1
0
0
0
#8
1
0
0
0
#9
0
0
0
0
0
0
0
